{ 
"testData": "hello world",   
"testArray": [1,2,3,4,5,6], 
"study":[{
    "type": "科研",
    "name": "赛特新思",
    "address": "https://www.citexs.com/",
    "description": "SCI写作助手"
}, {
    "type": "科研",
    "name": "赛特新思",
    "address": "https://www.citexs.com/",
    "description": "SCI写作助手"
}
]
}
